https://www.alltime.ru/watch/fgattien/3966-111bl/147699/
https://www.alltime.ru/watch/fgattien/9099-111bl/147738/
https://www.alltime.ru/watch/fgattien/9752-111wh/147393/
https://www.alltime.ru/watch/fgattien/10524-111bl/169286/
https://www.alltime.ru/watch/fgattien/10039-314bl/169287/
https://www.alltime.ru/watch/fgattien/6124-311yellow/147368/
https://www.alltime.ru/watch/fgattien/10524-711br/169282/
https://www.alltime.ru/watch/fgattien/10127-112bl/147351/
https://www.alltime.ru/watch/fgattien/10039-311br/169288/
https://www.alltime.ru/watch/fgattien/8333-111beige/147388/
https://www.alltime.ru/watch/fgattien/6848-711bl/147718/
https://www.alltime.ru/watch/fgattien/7471-102/147385/
https://www.alltime.ru/watch/fgattien/6124-711br/169291/
https://www.alltime.ru/watch/fgattien/3966-314bl/137085/
https://www.alltime.ru/watch/fgattien/6124-411wh/147369/
https://www.alltime.ru/watch/fgattien/7108-214bl/147339/
https://www.alltime.ru/watch/fgattien/0899-311pink/147348/
https://www.alltime.ru/watch/fgattien/9529-311bl/146003/
https://www.alltime.ru/watch/fgattien/3652-314bl/169301/
https://www.alltime.ru/watch/fgattien/9072-111bl/147407/
https://www.alltime.ru/watch/fgattien/10385-314bl/169329/
https://www.alltime.ru/watch/fgattien/7378-311wh/147382/
https://www.alltime.ru/watch/fgattien/7108-111bl/147338/
https://www.alltime.ru/watch/fgattien/9905-111bl/147416/
https://www.alltime.ru/watch/fgattien/3377-714bl/169344/
https://www.alltime.ru/watch/fgattien/0899-311blue/147347/
https://www.alltime.ru/watch/fgattien/0665-311br/169310/
https://www.alltime.ru/watch/fgattien/1771-104bl/169316/
https://www.alltime.ru/watch/fgattien/8860-311wh/147732/
https://www.alltime.ru/watch/fgattien/2288-301/169303/
https://www.alltime.ru/watch/fgattien/9905-314bl/147419/
https://www.alltime.ru/watch/fgattien/9097-314bl/147414/
https://www.alltime.ru/watch/fgattien/1921-314yellow/169348/
https://www.alltime.ru/watch/fgattien/6149-111beige/147370/
https://www.alltime.ru/watch/fgattien/9072-314bl/147410/
https://www.alltime.ru/watch/fgattien/0694-311bl/147685/
https://www.alltime.ru/watch/fgattien/7378-111bl/147380/
https://www.alltime.ru/watch/fgattien/7246-316blue/147723/
https://www.alltime.ru/watch/fgattien/9529-111beige/147763/
https://www.alltime.ru/watch/fgattien/9402-410br/137087/
https://www.alltime.ru/watch/fgattien/9138-112beige/147748/
https://www.alltime.ru/watch/fgattien/4891-314bl/169295/
https://www.alltime.ru/watch/fgattien/9130-112beige/147742/
https://www.alltime.ru/watch/fgattien/9426-313gr/147757/
https://www.alltime.ru/watch/fgattien/9072-311br/147409/
https://www.alltime.ru/watch/fgattien/10383-114bl/169336/
https://www.alltime.ru/watch/fgattien/9426-311bl/147756/
https://www.alltime.ru/watch/fgattien/9752-112beige/147394/
https://www.alltime.ru/watch/fgattien/8860-411wh/147733/
https://www.alltime.ru/watch/fgattien/9130-311blue/147743/
https://www.alltime.ru/watch/fgattien/0694-314bl/147686/
https://www.alltime.ru/watch/fgattien/8820-111bl/147725/
https://www.alltime.ru/watch/fgattien/9067-311bl/147735/
https://www.alltime.ru/watch/fgattien/9752-314bl/147396/
https://www.alltime.ru/watch/fgattien/7805-114bl/169322/
https://www.alltime.ru/watch/fgattien/0702-914red/169353/
https://www.alltime.ru/watch/fgattien/1921-314red/169349/
https://www.alltime.ru/watch/fgattien/9067-411br/147737/
https://www.alltime.ru/watch/fgattien/10131-304/147401/
https://www.alltime.ru/watch/fgattien/7108-714bl_red/169342/
https://www.alltime.ru/watch/fgattien/0694-411br/147688/
https://www.alltime.ru/watch/fgattien/0899-314bl/169307/
https://www.alltime.ru/watch/fgattien/7414-301/147405/
https://www.alltime.ru/watch/fgattien/7111-111wh/147342/
https://www.alltime.ru/watch/fgattien/9897-311gr/102759/
https://www.alltime.ru/watch/fgattien/9529-314bl/147765/
https://www.alltime.ru/watch/fgattien/10385-111bl/169332/
https://www.alltime.ru/watch/fgattien/7108-314bl/147341/
https://www.alltime.ru/watch/fgattien/1109-104bl/102847/
https://www.alltime.ru/watch/fgattien/10128-311bl/147357/
https://www.alltime.ru/watch/fgattien/9099-314bl/147740/
https://www.alltime.ru/watch/fgattien/3652-311beige/147362/
https://www.alltime.ru/watch/fgattien/6236-101/147375/
https://www.alltime.ru/watch/fgattien/3329-411br/147696/
https://www.alltime.ru/watch/fgattien/7471-201/147386/
https://www.alltime.ru/watch/fgattien/9067-111bl/147734/
https://www.alltime.ru/watch/fgattien/0702-711bl/102850/
https://www.alltime.ru/watch/fgattien/6149-411br/147374/
https://www.alltime.ru/watch/fgattien/3377-314blue/169346/
https://www.alltime.ru/watch/fgattien/6848-316blue/147716/
https://www.alltime.ru/watch/fgattien/8820-111beige/147724/
https://www.alltime.ru/watch/fgattien/9492-112beige/147760/
https://www.alltime.ru/watch/fgattien/3377-214red/169347/
https://www.alltime.ru/watch/fgattien/7471-301/147387/
https://www.alltime.ru/watch/fgattien/5970-111beige/147709/
https://www.alltime.ru/watch/fgattien/0694-111bl/147684/
https://www.alltime.ru/watch/fgattien/7246-111wh/147720/
https://www.alltime.ru/watch/fgattien/5970-311bl/147711/
https://www.alltime.ru/watch/fgattien/10131-301/147399/
https://www.alltime.ru/watch/fgattien/0702-110br/102852/
https://www.alltime.ru/watch/fgattien/9752-317blue/147397/
https://www.alltime.ru/watch/fgattien/0899-318green/147350/
https://www.alltime.ru/watch/fgattien/1109-701wh/102846/
https://www.alltime.ru/watch/fgattien/0702-716blue/102849/
https://www.alltime.ru/watch/fgattien/4792-111beige/147701/
https://www.alltime.ru/watch/fgattien/10524-314bl/169283/
https://www.alltime.ru/watch/fgattien/2288-304/169302/
https://www.alltime.ru/watch/fgattien/9099-311bl/147739/
https://www.alltime.ru/watch/fgattien/8333-411wh/147392/
https://www.alltime.ru/watch/fgattien/8935-314bl/169339/
https://www.alltime.ru/watch/fgattien/8860-111beige/147729/
https://www.alltime.ru/watch/fgattien/10127-311bl/147352/
https://www.alltime.ru/watch/fgattien/1921-314bl/169352/
https://www.alltime.ru/watch/fgattien/9097-410br/147415/
https://www.alltime.ru/watch/fgattien/7378-111beige/147379/
https://www.alltime.ru/watch/fgattien/9897-314bl/102758/
https://www.alltime.ru/watch/fgattien/0665-111bl/169312/
https://www.alltime.ru/watch/fgattien/9402-314bl/137086/
https://www.alltime.ru/watch/fgattien/10128-311blue/147358/
https://www.alltime.ru/watch/fgattien/4792-311blue/147704/
https://www.alltime.ru/watch/fgattien/4891-114bl/169297/
https://www.alltime.ru/watch/fgattien/6848-410red/147717/
https://www.alltime.ru/watch/fgattien/4792-112fox/147702/
https://www.alltime.ru/watch/fgattien/9897-111bl/102761/
https://www.alltime.ru/watch/fgattien/10039-311bl/169289/
https://www.alltime.ru/watch/fgattien/0899-3111violet/147346/
https://www.alltime.ru/watch/fgattien/10385-114bl/169331/
https://www.alltime.ru/watch/fgattien/8820-311bl/147726/
https://www.alltime.ru/watch/fgattien/7414-304/147406/
https://www.alltime.ru/watch/fgattien/7246-314bl/147722/
https://www.alltime.ru/watch/fgattien/3966-110br/147698/
https://www.alltime.ru/watch/fgattien/1771-304bl/169314/
https://www.alltime.ru/watch/fgattien/10405-314bl/169324/
https://www.alltime.ru/watch/fgattien/6149-314bl/147373/
https://www.alltime.ru/watch/fgattien/10385-711br/169328/
https://www.alltime.ru/watch/fgattien/9097-311bl/147413/
https://www.alltime.ru/watch/fgattien/9897-411br/102757/
https://www.alltime.ru/watch/fgattien/0665-110br/169313/
https://www.alltime.ru/watch/fgattien/7111-411beige/147345/
https://www.alltime.ru/watch/fgattien/10524-313bl/169284/
https://www.alltime.ru/watch/fgattien/2288-104/169305/
https://www.alltime.ru/watch/fgattien/3652-414bl/169300/
https://www.alltime.ru/watch/fgattien/1771-101wh/169317/
https://www.alltime.ru/watch/fgattien/8860-311blue/147730/
https://www.alltime.ru/watch/fgattien/6124-311blue/147365/
https://www.alltime.ru/watch/fgattien/8333-311bl/147389/
https://www.alltime.ru/watch/fgattien/8820-411br/147728/
https://www.alltime.ru/watch/fgattien/8333-314bl/147391/
https://www.alltime.ru/watch/fgattien/3652-111bl/147360/
https://www.alltime.ru/watch/fgattien/9138-316blue/147751/
https://www.alltime.ru/watch/fgattien/5970-111bl/147710/
https://www.alltime.ru/watch/fgattien/9402-111bl/147752/
https://www.alltime.ru/watch/fgattien/10383-311bl/169335/
https://www.alltime.ru/watch/fgattien/9492-311wh/147761/
https://www.alltime.ru/watch/fgattien/9138-314bl/147750/
https://www.alltime.ru/watch/fgattien/9072-311bl/147408/
https://www.alltime.ru/watch/fgattien/7378-311bl/147381/
https://www.alltime.ru/watch/fgattien/4792-311gr/147705/
https://www.alltime.ru/watch/fgattien/6848-111wh/147714/
https://www.alltime.ru/watch/fgattien/2288-201/169304/
https://www.alltime.ru/watch/fgattien/10405-114bl/169326/
https://www.alltime.ru/watch/fgattien/8935-111bl/169341/
https://www.alltime.ru/watch/fgattien/1921-314or/169350/
https://www.alltime.ru/watch/fgattien/9492-314bl/147762/
https://www.alltime.ru/watch/fgattien/6124-311or/147366/
https://www.alltime.ru/watch/fgattien/9492-111bl/147759/
https://www.alltime.ru/watch/fgattien/0694-317blue/147687/
https://www.alltime.ru/watch/fgattien/1771-301wh/169315/
https://www.alltime.ru/watch/fgattien/0665-311bl/169311/
https://www.alltime.ru/watch/fgattien/10128-111bl/147356/
https://www.alltime.ru/watch/fgattien/6236-301/147377/
https://www.alltime.ru/watch/fgattien/10131-401/147402/
https://www.alltime.ru/watch/fgattien/4891-110br/169299/
https://www.alltime.ru/watch/fgattien/9905-311bl/147418/
https://www.alltime.ru/watch/fgattien/1907-111bl/147689/
https://www.alltime.ru/watch/fgattien/10127-410br/147355/
https://www.alltime.ru/watch/fgattien/3329-711bl/147697/
https://www.alltime.ru/watch/fgattien/10128-411wh/147359/
https://www.alltime.ru/watch/fgattien/9529-111wh/147764/
https://www.alltime.ru/watch/fgattien/8935-311bl/169340/
https://www.alltime.ru/watch/fgattien/3329-314bl/147695/
https://www.alltime.ru/watch/fgattien/9130-311wh/147744/
https://www.alltime.ru/watch/fgattien/9426-411br/147758/
https://www.alltime.ru/watch/fgattien/1907-411br/147692/
https://www.alltime.ru/watch/fgattien/6236-201/147376/
https://www.alltime.ru/watch/fgattien/10405-311bl/169325/
https://www.alltime.ru/watch/fgattien/7108-311bordo/147420/
https://www.alltime.ru/watch/fgattien/1921-314blue/169351/
https://www.alltime.ru/watch/fgattien/8860-311or/147731/
https://www.alltime.ru/watch/fgattien/0899-311bl/169308/
https://www.alltime.ru/watch/fgattien/7414-101/147403/
https://www.alltime.ru/watch/fgattien/7805-314bl/169320/
https://www.alltime.ru/watch/fgattien/8935-714bl/169337/
https://www.alltime.ru/watch/fgattien/5970-314bl/147713/
https://www.alltime.ru/watch/fgattien/10383-314bl/169334/
https://www.alltime.ru/watch/fgattien/6124-314bl/169292/
https://www.alltime.ru/watch/fgattien/10131-303/147400/
https://www.alltime.ru/watch/fgattien/3329-311bl/147694/
https://www.alltime.ru/watch/fgattien/5940-101/147706/
https://www.alltime.ru/watch/fgattien/10039-111bl/169290/
https://www.alltime.ru/watch/fgattien/4891-311bl/169296/
https://www.alltime.ru/watch/fgattien/9905-111br/147417/
https://www.alltime.ru/watch/fgattien/7378-411wh/147383/
https://www.alltime.ru/watch/fgattien/3966-313gr/147700/
https://www.alltime.ru/watch/fgattien/6149-311bl/147371/
https://www.alltime.ru/watch/fgattien/6124-311bl/169293/
https://www.alltime.ru/watch/fgattien/3377-314or/169345/
https://www.alltime.ru/watch/fgattien/6236-304/147378/
https://www.alltime.ru/watch/fgattien/9067-314bl/147736/
https://www.alltime.ru/watch/fgattien/8935-711bl/169338/
https://www.alltime.ru/watch/fgattien/2288-101/169306/
https://www.alltime.ru/watch/fgattien/9097-111bl/147412/
https://www.alltime.ru/watch/fgattien/9099-711br/147741/
https://www.alltime.ru/watch/fgattien/9130-410br/147746/
https://www.alltime.ru/watch/fgattien/3966-416blue/102831/
https://www.alltime.ru/watch/fgattien/9138-311bl/147749/
https://www.alltime.ru/watch/fgattien/9426-112beige/147755/
https://www.alltime.ru/watch/fgattien/10127-313bl/147353/
https://www.alltime.ru/watch/fgattien/7111-311pink/145636/
https://www.alltime.ru/watch/fgattien/7471-101/147384/
https://www.alltime.ru/watch/fgattien/3377-914bl/169343/
https://www.alltime.ru/watch/fgattien/9752-311wh/147395/
https://www.alltime.ru/watch/fgattien/8333-311blue/147390/
https://www.alltime.ru/watch/fgattien/6848-311bl/147715/
https://www.alltime.ru/watch/fgattien/0899-311wh/147349/
https://www.alltime.ru/watch/fgattien/7246-111bl/147719/
https://www.alltime.ru/watch/fgattien/9138-111wh/147747/
https://www.alltime.ru/watch/fgattien/7414-201/147404/
https://www.alltime.ru/watch/fgattien/5940-301/147707/
https://www.alltime.ru/watch/fgattien/7246-311gr/147721/
https://www.alltime.ru/watch/fgattien/6124-311pink/147367/
https://www.alltime.ru/watch/fgattien/10405-111br/169327/
https://www.alltime.ru/watch/fgattien/0665-314bl/169309/
https://www.alltime.ru/watch/fgattien/9072-914bl/147411/
https://www.alltime.ru/watch/fgattien/10385-311bl/169330/
https://www.alltime.ru/watch/fgattien/7108-311bl/147340/
https://www.alltime.ru/watch/fgattien/3652-311bl/147363/
https://www.alltime.ru/watch/fgattien/1907-311bl/147690/
https://www.alltime.ru/watch/fgattien/10131-101/147398/
https://www.alltime.ru/watch/fgattien/3652-411blue/147364/
https://www.alltime.ru/watch/fgattien/6149-311wh/147372/
https://www.alltime.ru/watch/fgattien/6124-111bl/169294/
https://www.alltime.ru/watch/fgattien/10524-311bl/169285/
https://www.alltime.ru/watch/fgattien/10383-711br/169333/
https://www.alltime.ru/watch/fgattien/7111-311blue/147344/
https://www.alltime.ru/watch/fgattien/1907-314bl/147691/
https://www.alltime.ru/watch/fgattien/10127-314bl/147354/
https://www.alltime.ru/watch/fgattien/1109-704bl/102845/
https://www.alltime.ru/watch/fgattien/3329-111bl/147693/
https://www.alltime.ru/watch/fgattien/7805-311bl/169321/
https://www.alltime.ru/watch/fgattien/7805-111bl/169323/
https://www.alltime.ru/watch/fgattien/5940-303/147708/
https://www.alltime.ru/watch/fgattien/9529-416blue/147766/
https://www.alltime.ru/watch/fgattien/1109-101wh/102848/
https://www.alltime.ru/watch/fgattien/9130-314bl/147745/
https://www.alltime.ru/watch/fgattien/9905-311br/169318/
https://www.alltime.ru/watch/fgattien/0702-214bl/102851/
https://www.alltime.ru/watch/fgattien/8820-311gr/147727/
https://www.alltime.ru/watch/fgattien/9897-311bl/102760/
https://www.alltime.ru/watch/fgattien/7111-311bl/147343/
https://www.alltime.ru/watch/fgattien/9426-111bl/147754/
https://www.alltime.ru/watch/fgattien/9402-313bl/147753/
https://www.alltime.ru/watch/fgattien/7805-711br/169319/
https://www.alltime.ru/watch/fgattien/4891-111beige/169298/
https://www.alltime.ru/watch/fgattien/3652-111br/147361/
https://www.alltime.ru/watch/fgattien/5970-311blue/147712/
https://www.alltime.ru/watch/fgattien/4792-311bl/147703/
