https://www.alltime.ru/clock/mosalt/MS-3029G/283152/
https://www.alltime.ru/clock/mosalt/MS-3387/374775/
https://www.alltime.ru/clock/mosalt/MS-1966-C/375827/
https://www.alltime.ru/clock/mosalt/MS-1966-A/375826/
https://www.alltime.ru/clock/mosalt/MS-980/283148/
https://www.alltime.ru/clock/mosalt/MS-2067/283175/
https://www.alltime.ru/clock/mosalt/MS-2486A/283169/
https://www.alltime.ru/clock/mosalt/MS-657/283151/
https://www.alltime.ru/clock/mosalt/MS-2998C/283156/
https://www.alltime.ru/clock/mosalt/MS-3027/283154/
https://www.alltime.ru/clock/mosalt/MS-2890/283164/
https://www.alltime.ru/clock/mosalt/MS-2745F/283166/
https://www.alltime.ru/clock/mosalt/MS-3464/374777/
https://www.alltime.ru/clock/mosalt/MS-2754/283165/
https://www.alltime.ru/clock/mosalt/MS-2247/283174/
https://www.alltime.ru/clock/mosalt/MS-2895/283163/
https://www.alltime.ru/clock/mosalt/MS-2899/283162/
https://www.alltime.ru/clock/mosalt/MS-3029/283153/
https://www.alltime.ru/clock/mosalt/MS-2998B/283157/
https://www.alltime.ru/clock/mosalt/MS-2397/283171/
https://www.alltime.ru/clock/mosalt/MS-2903/283159/
https://www.alltime.ru/clock/mosalt/MS-2289/283172/
https://www.alltime.ru/clock/mosalt/MS-763/375824/
https://www.alltime.ru/clock/mosalt/MS-3375/374774/
https://www.alltime.ru/clock/mosalt/MS-2998A/283158/
https://www.alltime.ru/clock/mosalt/MS-2272/375828/
https://www.alltime.ru/clock/mosalt/MS-2580B/283167/
https://www.alltime.ru/clock/mosalt/MS-3407-C/374776/
https://www.alltime.ru/clock/mosalt/MS-431B/375823/
https://www.alltime.ru/clock/mosalt/MS-2284/283173/
https://www.alltime.ru/clock/mosalt/MS-2486B/283168/
https://www.alltime.ru/clock/mosalt/MS-2495B/375829/
https://www.alltime.ru/clock/mosalt/MS-1054/375825/
https://www.alltime.ru/clock/mosalt/MS-2901/283161/
https://www.alltime.ru/clock/mosalt/MS-2462/283170/
https://www.alltime.ru/clock/mosalt/MS-2902B/283160/
https://www.alltime.ru/clock/mosalt/MS-2867/375830/
https://www.alltime.ru/clock/mosalt/MS-2998D/283155/
