https://www.alltime.ru/watch/furla/R4251108512/274439/
https://www.alltime.ru/watch/furla/R4251102504/274422/
https://www.alltime.ru/watch/furla/R4251117505/384877/
https://www.alltime.ru/watch/furla/R4251111505/344403/
https://www.alltime.ru/watch/furla/R4251109509/274444/
https://www.alltime.ru/watch/furla/R4251101515/274419/
https://www.alltime.ru/watch/furla/R4251112508/384882/
https://www.alltime.ru/watch/furla/R4251108514/274441/
https://www.alltime.ru/watch/furla/R4251115504/368417/
https://www.alltime.ru/watch/furla/R4251102546/355919/
https://www.alltime.ru/watch/furla/R4251102543/355916/
https://www.alltime.ru/watch/furla/R4251101525/334323/
https://www.alltime.ru/watch/furla/R4251115505/368418/
https://www.alltime.ru/watch/furla/R4251102536/325460/
https://www.alltime.ru/watch/furla/R4251106501/344402/
https://www.alltime.ru/watch/furla/R4251101508/299833/
https://www.alltime.ru/watch/furla/R4251102528/331343/
https://www.alltime.ru/watch/furla/R4251102519/355914/
https://www.alltime.ru/watch/furla/R4253102504/299840/
https://www.alltime.ru/watch/furla/R4251114504/355933/
https://www.alltime.ru/watch/furla/R4251110502/355923/
https://www.alltime.ru/watch/furla/R4251103501/274427/
https://www.alltime.ru/watch/furla/R4251102508/299849/
https://www.alltime.ru/watch/furla/R4253101533/334334/
https://www.alltime.ru/watch/furla/R4253101517/274452/
https://www.alltime.ru/watch/furla/R4251117501/384880/
https://www.alltime.ru/watch/furla/R4251102523/299845/
https://www.alltime.ru/watch/furla/R4251108525/334330/
https://www.alltime.ru/watch/furla/R4253102524/325455/
https://www.alltime.ru/watch/furla/R4251101502/274417/
https://www.alltime.ru/watch/furla/R4251112509/384881/
https://www.alltime.ru/watch/furla/R4251108520/334327/
https://www.alltime.ru/watch/furla/R4251110503/325454/
https://www.alltime.ru/watch/furla/R4251117502/384879/
https://www.alltime.ru/watch/furla/R4251102530/299841/
https://www.alltime.ru/watch/furla/R4251117504/384878/
https://www.alltime.ru/watch/furla/R4251104502/299823/
https://www.alltime.ru/watch/furla/R4251115502/368415/
https://www.alltime.ru/watch/furla/R4251110508/325451/
https://www.alltime.ru/watch/furla/R4253113503/355939/
https://www.alltime.ru/watch/furla/R4251109516/299816/
https://www.alltime.ru/watch/furla/R4251116505/384867/
https://www.alltime.ru/watch/furla/R4251113508/355925/
https://www.alltime.ru/watch/furla/R4251102538/325458/
https://www.alltime.ru/watch/furla/R4253106503/274461/
https://www.alltime.ru/watch/furla/R4251108521/334328/
https://www.alltime.ru/watch/furla/R4251108519/325447/
https://www.alltime.ru/watch/furla/R4251102507/299850/
https://www.alltime.ru/watch/furla/R4251113516/384871/
https://www.alltime.ru/watch/furla/R4251110507/325452/
https://www.alltime.ru/watch/furla/R4253102519/274457/
https://www.alltime.ru/watch/furla/R4251108501/299837/
https://www.alltime.ru/watch/furla/R4253109505/299814/
https://www.alltime.ru/watch/furla/R4253101514/299827/
https://www.alltime.ru/watch/furla/R4253102517/344406/
https://www.alltime.ru/watch/furla/R4251102539/344407/
https://www.alltime.ru/watch/furla/R4251102540/325457/
https://www.alltime.ru/watch/furla/R4251102535/325461/
https://www.alltime.ru/watch/furla/R4251115506/368419/
https://www.alltime.ru/watch/furla/R4251101522/334321/
https://www.alltime.ru/watch/furla/R4251110506/325453/
https://www.alltime.ru/watch/furla/R4251109510/299818/
https://www.alltime.ru/watch/furla/R4251113511/355928/
https://www.alltime.ru/watch/furla/R4251109511/274445/
https://www.alltime.ru/watch/furla/R4251108522/325446/
https://www.alltime.ru/watch/furla/R4251102525/299843/
https://www.alltime.ru/watch/furla/R4251108506/325449/
https://www.alltime.ru/watch/furla/R4251108526/325445/
https://www.alltime.ru/watch/furla/R4251102501/274420/
https://www.alltime.ru/watch/furla/R4251103506/348101/
https://www.alltime.ru/watch/furla/R4251106506/274435/
https://www.alltime.ru/watch/furla/R4251110501/334331/
https://www.alltime.ru/watch/furla/R4251101521/334320/
https://www.alltime.ru/watch/furla/R4253101503/274448/
https://www.alltime.ru/watch/furla/R4251104505/299821/
https://www.alltime.ru/watch/furla/R4251107502/299854/
https://www.alltime.ru/watch/furla/R4251104501/299824/
https://www.alltime.ru/watch/furla/R4251111503/325440/
https://www.alltime.ru/watch/furla/R4253101504/299829/
https://www.alltime.ru/watch/furla/R4251102505/331344/
https://www.alltime.ru/watch/furla/R4251103519/325437/
https://www.alltime.ru/watch/furla/R4251114503/355932/
https://www.alltime.ru/watch/furla/R4251102522/299846/
https://www.alltime.ru/watch/furla/R4251101505/344405/
https://www.alltime.ru/watch/furla/R4251101507/325443/
https://www.alltime.ru/watch/furla/R4251104507/274433/
https://www.alltime.ru/watch/furla/R4251101504/299835/
https://www.alltime.ru/watch/furla/R4253102509/299838/
https://www.alltime.ru/watch/furla/R4251102537/325459/
https://www.alltime.ru/watch/furla/R4251108507/325448/
https://www.alltime.ru/watch/furla/R4251104508/274434/
https://www.alltime.ru/watch/furla/R4253101519/325441/
https://www.alltime.ru/watch/furla/R4251102547/355920/
https://www.alltime.ru/watch/furla/R4251102517/299847/
https://www.alltime.ru/watch/furla/R4253102502/274454/
https://www.alltime.ru/watch/furla/R4253101507/274449/
https://www.alltime.ru/watch/furla/R4251117507/384876/
https://www.alltime.ru/watch/furla/R4251103511/299853/
https://www.alltime.ru/watch/furla/R4251108513/274440/
https://www.alltime.ru/watch/furla/R4253117504/384874/
https://www.alltime.ru/watch/furla/R4253101508/275825/
https://www.alltime.ru/watch/furla/R4251112507/384883/
https://www.alltime.ru/watch/furla/R4251103503/274429/
https://www.alltime.ru/watch/furla/R4251103512/299813/
https://www.alltime.ru/watch/furla/R4253103503/274460/
https://www.alltime.ru/watch/furla/R4253113501/355938/
https://www.alltime.ru/watch/furla/R4251106503/368412/
https://www.alltime.ru/watch/furla/R4251101503/299836/
https://www.alltime.ru/watch/furla/R4251116503/384868/
https://www.alltime.ru/watch/furla/R4251103515/274431/
https://www.alltime.ru/watch/furla/R4251109504/325438/
https://www.alltime.ru/watch/furla/R4251101524/334322/
https://www.alltime.ru/watch/furla/R4253101501/368411/
https://www.alltime.ru/watch/furla/R4251104503/299822/
https://www.alltime.ru/watch/furla/R4251113507/355924/
https://www.alltime.ru/watch/furla/R4251116501/384869/
https://www.alltime.ru/watch/furla/R4253109508/274464/
https://www.alltime.ru/watch/furla/R4251102544/355917/
https://www.alltime.ru/watch/furla/R4251101506/299834/
https://www.alltime.ru/watch/furla/R4251101512/299831/
https://www.alltime.ru/watch/furla/R4251102521/274426/
https://www.alltime.ru/watch/furla/R4251113512/355929/
https://www.alltime.ru/watch/furla/R4251109505/299819/
https://www.alltime.ru/watch/furla/R4253102508/299839/
https://www.alltime.ru/watch/furla/R4253101524/299825/
https://www.alltime.ru/watch/furla/R4253103505/299852/
https://www.alltime.ru/watch/furla/R4251113509/355926/
https://www.alltime.ru/watch/furla/R4253117506/384873/
https://www.alltime.ru/watch/furla/R4251113515/384872/
https://www.alltime.ru/watch/furla/R4253103501/344408/
https://www.alltime.ru/watch/furla/R4251114506/355935/
https://www.alltime.ru/watch/furla/R4251101514/274418/
https://www.alltime.ru/watch/furla/R4251113517/384870/
https://www.alltime.ru/watch/furla/R4251111504/344404/
https://www.alltime.ru/watch/furla/R4251101501/274410/
https://www.alltime.ru/watch/furla/R4251103510/274430/
https://www.alltime.ru/watch/furla/R4251101526/334324/
https://www.alltime.ru/watch/furla/R4251114505/355934/
https://www.alltime.ru/watch/furla/R4251110509/325450/
https://www.alltime.ru/watch/furla/R4251102529/299842/
https://www.alltime.ru/watch/furla/R4251108524/334329/
https://www.alltime.ru/watch/furla/R4251102510/274423/
https://www.alltime.ru/watch/furla/R4251112506/384884/
https://www.alltime.ru/watch/furla/R4251101516/325442/
https://www.alltime.ru/watch/furla/R4253111502/334335/
https://www.alltime.ru/watch/furla/R4251102545/355918/
https://www.alltime.ru/watch/furla/R4253101523/299826/
https://www.alltime.ru/watch/furla/R4253102523/325456/
https://www.alltime.ru/watch/furla/R4253111501/355937/
https://www.alltime.ru/watch/furla/R4251103505/325462/
https://www.alltime.ru/watch/furla/R4251102503/274421/
https://www.alltime.ru/watch/furla/R4251102541/355915/
https://www.alltime.ru/watch/furla/R4251102549/355922/
https://www.alltime.ru/watch/furla/R4251102516/299848/
https://www.alltime.ru/watch/furla/R4253102506/274455/
https://www.alltime.ru/watch/furla/R4251114501/355930/
https://www.alltime.ru/watch/furla/R4251102548/355921/
https://www.alltime.ru/watch/furla/R4251115503/368416/
https://www.alltime.ru/watch/furla/R4251102506/299851/
https://www.alltime.ru/watch/furla/R4251108518/334326/
https://www.alltime.ru/watch/furla/R4251109507/274443/
https://www.alltime.ru/watch/furla/R4253117503/384875/
https://www.alltime.ru/watch/furla/R4253101515/274450/
https://www.alltime.ru/watch/furla/R4251102524/299844/
https://www.alltime.ru/watch/furla/R4251108503/334325/
https://www.alltime.ru/watch/furla/R4251113510/355927/
https://www.alltime.ru/watch/furla/R4253108503/355936/
https://www.alltime.ru/watch/furla/R4251103516/299856/
https://www.alltime.ru/watch/furla/R4253103502/274459/
https://www.alltime.ru/watch/furla/R4251115501/368413/
https://www.alltime.ru/watch/furla/R4251102511/274424/
https://www.alltime.ru/watch/furla/R4253101530/334333/
https://www.alltime.ru/watch/furla/R4251107504/274438/
https://www.alltime.ru/watch/furla/R4251114502/355931/
https://www.alltime.ru/watch/furla/R4251106505/325439/
https://www.alltime.ru/watch/furla/R4251110504/334332/
https://www.alltime.ru/watch/furla/R4251101510/299832/
https://www.alltime.ru/watch/furla/R4251116506/384866/
https://www.alltime.ru/watch/furla/R4251108527/325444/
