https://www.alltime.ru/watch/storm/ST-47371/RG/284488/
https://www.alltime.ru/watch/storm/ST-47262/RG/307658/
https://www.alltime.ru/watch/storm/ST-47327/RG/307648/
https://www.alltime.ru/watch/storm/ST-47261/RG/307585/
https://www.alltime.ru/watch/storm/ST-47216/RG/284479/
