https://www.alltime.ru/watch/jean-marcel/JM-560.271.32/16323/
https://www.alltime.ru/watch/jean-marcel/JM-560.267.56/121996/
https://www.alltime.ru/watch/jean-marcel/JM-160.271.32/16331/
https://www.alltime.ru/watch/jean-marcel/JM-560.267.33/20255/
https://www.alltime.ru/watch/jean-marcel/JM-961.267.73/122009/
https://www.alltime.ru/watch/jean-marcel/JM-160.265.53/31082/
https://www.alltime.ru/watch/jean-marcel/JM-160.251.76/34117/
https://www.alltime.ru/watch/jean-marcel/JM-960.267.36/122003/
https://www.alltime.ru/watch/jean-marcel/JM-560.252.62/122054/
https://www.alltime.ru/watch/jean-marcel/JM-560.240.32/122049/
https://www.alltime.ru/watch/jean-marcel/JM-970.250.55/122033/
https://www.alltime.ru/watch/jean-marcel/JM-160.235.32/122017/
https://www.alltime.ru/watch/jean-marcel/JM-960.265.72/26077/
https://www.alltime.ru/watch/jean-marcel/JM-560.252.72/122055/
https://www.alltime.ru/watch/jean-marcel/JM-961.266.32/122006/
https://www.alltime.ru/watch/jean-marcel/JM-461.267.73/31112/
https://www.alltime.ru/watch/jean-marcel/JM-570.251.53/121973/
https://www.alltime.ru/watch/jean-marcel/JM-160.303.32/147230/
https://www.alltime.ru/watch/jean-marcel/JM-560.271.35/121897/
https://www.alltime.ru/watch/jean-marcel/JM-170.301.32/145460/
https://www.alltime.ru/watch/jean-marcel/JM-560.265.52/121886/
https://www.alltime.ru/watch/jean-marcel/JM-170.232.72/122022/
https://www.alltime.ru/watch/jean-marcel/JM-470.266.72/121993/
https://www.alltime.ru/watch/jean-marcel/JM-970.267.52/122012/
https://www.alltime.ru/watch/jean-marcel/JM-160.267.56/121982/
https://www.alltime.ru/watch/jean-marcel/JM-560.265.63/20257/
https://www.alltime.ru/watch/jean-marcel/JM-960.251.35/122068/
https://www.alltime.ru/watch/jean-marcel/JM-560.265.33/31119/
https://www.alltime.ru/watch/jean-marcel/JM-160.232.52/122015/
https://www.alltime.ru/watch/jean-marcel/JM-960.265.53/31133/
https://www.alltime.ru/watch/jean-marcel/JM-570.250.55/122029/
https://www.alltime.ru/watch/jean-marcel/JM-170.250.55/122023/
https://www.alltime.ru/watch/jean-marcel/JM-160.252.32/122041/
https://www.alltime.ru/watch/jean-marcel/JM-570.265.52/31126/
https://www.alltime.ru/watch/jean-marcel/JM-160.266.74/121980/
https://www.alltime.ru/watch/jean-marcel/JM-170.303.26/147238/
https://www.alltime.ru/watch/jean-marcel/JM-165.271.33/123639/
https://www.alltime.ru/watch/jean-marcel/JM-461.267.52/31111/
https://www.alltime.ru/watch/jean-marcel/JM-860.251.46/122061/
https://www.alltime.ru/watch/jean-marcel/JM-970.252.32/122076/
https://www.alltime.ru/watch/jean-marcel/JM-970.240.32/122075/
https://www.alltime.ru/watch/jean-marcel/JM-961.267.62/122008/
https://www.alltime.ru/watch/jean-marcel/JM-160.265.32/121888/
https://www.alltime.ru/watch/jean-marcel/JM-160.240.32/122037/
https://www.alltime.ru/watch/jean-marcel/JM-165.271.35/121899/
https://www.alltime.ru/watch/jean-marcel/JM-970.265.52/31147/
https://www.alltime.ru/watch/jean-marcel/JM-870.251.35/122066/
https://www.alltime.ru/watch/jean-marcel/JM-560.267.36/31122/
https://www.alltime.ru/watch/jean-marcel/JM-170.271.72/16324/
https://www.alltime.ru/watch/jean-marcel/JM-161.267.62/121975/
https://www.alltime.ru/watch/jean-marcel/JM-560.250.35/122027/
https://www.alltime.ru/watch/jean-marcel/JM-164.271.53/16328/
https://www.alltime.ru/watch/jean-marcel/JM-961.271.53/121891/
https://www.alltime.ru/watch/jean-marcel/JM-970.251.33/26073/
https://www.alltime.ru/watch/jean-marcel/JM-160.235.52/122018/
https://www.alltime.ru/watch/jean-marcel/JM-860.240.32/122058/
https://www.alltime.ru/watch/jean-marcel/JM-860.265.32/121885/
https://www.alltime.ru/watch/jean-marcel/JM-160.250.32/122038/
https://www.alltime.ru/watch/jean-marcel/JM-960.251.39/121999/
https://www.alltime.ru/watch/jean-marcel/JM-970.251.35/39519/
https://www.alltime.ru/watch/jean-marcel/JM-565.271.55/123638/
https://www.alltime.ru/watch/jean-marcel/JM-160.265.63/121977/
https://www.alltime.ru/watch/jean-marcel/JM-961.240.32/122074/
https://www.alltime.ru/watch/jean-marcel/JM-160.271.33/16330/
https://www.alltime.ru/watch/jean-marcel/JM-160.302.52/147227/
https://www.alltime.ru/watch/jean-marcel/JM-170.251.35/122046/
https://www.alltime.ru/watch/jean-marcel/JM-170.231.75/122021/
https://www.alltime.ru/watch/jean-marcel/JM-460.266.74/121992/
https://www.alltime.ru/watch/jean-marcel/JM-460.265.53/121991/
https://www.alltime.ru/watch/jean-marcel/JM-960.267.63/31140/
https://www.alltime.ru/watch/jean-marcel/JM-870.252.32/122067/
https://www.alltime.ru/watch/jean-marcel/JM-561.271.53/16321/
https://www.alltime.ru/watch/jean-marcel/JM-160.252.52/122042/
https://www.alltime.ru/watch/jean-marcel/JM-560.251.76/122028/
https://www.alltime.ru/watch/jean-marcel/JM-960.252.32/122071/
https://www.alltime.ru/watch/jean-marcel/JM-560.251.39/31118/
https://www.alltime.ru/watch/jean-marcel/JM-160.251.39/121979/
https://www.alltime.ru/watch/jean-marcel/JM-160.250.33/34115/
https://www.alltime.ru/watch/jean-marcel/JM-560.265.32/121887/
https://www.alltime.ru/watch/jean-marcel/JM-960.267.32/122001/
https://www.alltime.ru/watch/jean-marcel/JM-160.271.35/16329/
https://www.alltime.ru/watch/jean-marcel/JM-165.271.32/16327/
https://www.alltime.ru/watch/jean-marcel/JM-860.252.52/122063/
https://www.alltime.ru/watch/jean-marcel/JM-560.252.32/122053/
https://www.alltime.ru/watch/jean-marcel/JM-170.303.22/147237/
https://www.alltime.ru/watch/jean-marcel/JM-160.250.52/122040/
https://www.alltime.ru/watch/jean-marcel/JM-170.265.72/31099/
https://www.alltime.ru/watch/jean-marcel/JM-160.251.33/121978/
https://www.alltime.ru/watch/jean-marcel/JM-160.252.72/122020/
https://www.alltime.ru/watch/jean-marcel/JM-570.266.55/20254/
https://www.alltime.ru/watch/jean-marcel/JM-960.267.73/122005/
https://www.alltime.ru/watch/jean-marcel/JM-165.302.52/147234/
https://www.alltime.ru/watch/jean-marcel/JM-160.265.72/26079/
https://www.alltime.ru/watch/jean-marcel/JM-160.233.45/20259/
https://www.alltime.ru/watch/jean-marcel/JM-170.251.76/121987/
https://www.alltime.ru/watch/jean-marcel/JM-561.266.32/121997/
https://www.alltime.ru/watch/jean-marcel/JM-570.252.32/122057/
https://www.alltime.ru/watch/jean-marcel/JM-965.271.33/121890/
https://www.alltime.ru/watch/jean-marcel/JM-570.251.76/31125/
https://www.alltime.ru/watch/jean-marcel/JM-560.266.53/121904/
https://www.alltime.ru/watch/jean-marcel/JM-170.266.72/121988/
https://www.alltime.ru/watch/jean-marcel/JM-161.266.32/121984/
https://www.alltime.ru/watch/jean-marcel/JM-570.265.72/31127/
https://www.alltime.ru/watch/jean-marcel/JM-170.271.53/16325/
https://www.alltime.ru/watch/jean-marcel/JM-961.267.52/122007/
https://www.alltime.ru/watch/jean-marcel/JM-161.240.32/122044/
https://www.alltime.ru/watch/jean-marcel/JM-161.267.73/31094/
https://www.alltime.ru/watch/jean-marcel/JM-160.266.34/31083/
https://www.alltime.ru/watch/jean-marcel/JM-970.266.55/20253/
https://www.alltime.ru/watch/jean-marcel/JM-160.301.32/147225/
https://www.alltime.ru/watch/jean-marcel/JM-170.301.52/147235/
https://www.alltime.ru/watch/jean-marcel/JM-361.267.73/121990/
https://www.alltime.ru/watch/jean-marcel/JM-970.265.72/31148/
https://www.alltime.ru/watch/jean-marcel/JM-160.251.46/39483/
https://www.alltime.ru/watch/jean-marcel/JM-165.301.32/147232/
https://www.alltime.ru/watch/jean-marcel/JM-860.252.32/122062/
https://www.alltime.ru/watch/jean-marcel/JM-470.251.76/31113/
https://www.alltime.ru/watch/jean-marcel/JM-565.271.33/16318/
https://www.alltime.ru/watch/jean-marcel/JM-860.251.33/121902/
https://www.alltime.ru/watch/jean-marcel/JM-960.252.52/122072/
https://www.alltime.ru/watch/jean-marcel/JM-970.266.72/122034/
https://www.alltime.ru/watch/jean-marcel/JM-560.251.35/122052/
https://www.alltime.ru/watch/jean-marcel/JM-170.240.32/122045/
https://www.alltime.ru/watch/jean-marcel/JM-570.267.62/121974/
https://www.alltime.ru/watch/jean-marcel/JM-160.303.36/147231/
https://www.alltime.ru/watch/jean-marcel/JM-360.233.45/20258/
https://www.alltime.ru/watch/jean-marcel/JM-570.251.35/122056/
https://www.alltime.ru/watch/jean-marcel/JM-160.250.35/122039/
https://www.alltime.ru/watch/jean-marcel/JM-570.267.52/31128/
https://www.alltime.ru/watch/jean-marcel/JM-160.267.33/31086/
https://www.alltime.ru/watch/jean-marcel/JM-161.267.52/121985/
https://www.alltime.ru/watch/jean-marcel/JM-560.250.32/122050/
https://www.alltime.ru/watch/jean-marcel/JM-860.240.52/122059/
https://www.alltime.ru/watch/jean-marcel/JM-470.267.73/121994/
https://www.alltime.ru/watch/jean-marcel/JM-160.267.53/121981/
https://www.alltime.ru/watch/jean-marcel/JM-170.250.72/122024/
https://www.alltime.ru/watch/jean-marcel/JM-470.265.72/31114/
https://www.alltime.ru/watch/jean-marcel/JM-960.267.33/122002/
https://www.alltime.ru/watch/jean-marcel/JM-960.250.33/122031/
https://www.alltime.ru/watch/jean-marcel/JM-165.302.32/147233/
https://www.alltime.ru/watch/jean-marcel/JM-160.231.55/122036/
https://www.alltime.ru/watch/jean-marcel/JM-570.271.72/121893/
https://www.alltime.ru/watch/jean-marcel/JM-960.250.32/122030/
https://www.alltime.ru/watch/jean-marcel/JM-160.300.56/147224/
https://www.alltime.ru/watch/jean-marcel/JM-370.266.72/121906/
https://www.alltime.ru/watch/jean-marcel/JM-960.267.53/122004/
https://www.alltime.ru/watch/jean-marcel/JM-960.271.33/121892/
https://www.alltime.ru/watch/jean-marcel/JM-560.265.72/121967/
https://www.alltime.ru/watch/jean-marcel/JM-361.267.52/31106/
https://www.alltime.ru/watch/jean-marcel/JM-370.267.52/121905/
https://www.alltime.ru/watch/jean-marcel/JM-960.266.74/122000/
https://www.alltime.ru/watch/jean-marcel/JM-565.271.32/16319/
https://www.alltime.ru/watch/jean-marcel/JM-160.232.72/122016/
https://www.alltime.ru/watch/jean-marcel/JM-170.267.52/31102/
https://www.alltime.ru/watch/jean-marcel/JM-560.271.33/16322/
https://www.alltime.ru/watch/jean-marcel/JM-170.266.32/31100/
https://www.alltime.ru/watch/jean-marcel/JM-160.302.32/147226/
https://www.alltime.ru/watch/jean-marcel/JM-170.267.62/31103/
https://www.alltime.ru/watch/jean-marcel/JM-960.252.72/122073/
https://www.alltime.ru/watch/jean-marcel/JM-170.267.73/31104/
https://www.alltime.ru/watch/jean-marcel/JM-170.271.35/121898/
https://www.alltime.ru/watch/jean-marcel/JM-170.266.55/121971/
https://www.alltime.ru/watch/jean-marcel/JM-870.240.32/122065/
https://www.alltime.ru/watch/jean-marcel/JM-170.251.33/121986/
https://www.alltime.ru/watch/jean-marcel/JM-160.266.53/121972/
https://www.alltime.ru/watch/jean-marcel/JM-160.265.33/31081/
https://www.alltime.ru/watch/jean-marcel/JM-560.267.32/31121/
https://www.alltime.ru/watch/jean-marcel/JM-170.303.36/147239/
https://www.alltime.ru/watch/jean-marcel/JM-160.271.55/121901/
https://www.alltime.ru/watch/jean-marcel/JM-160.267.32/31085/
https://www.alltime.ru/watch/jean-marcel/JM-170.251.53/31096/
https://www.alltime.ru/watch/jean-marcel/JM-560.251.33/31117/
https://www.alltime.ru/watch/jean-marcel/JM-560.265.53/121995/
https://www.alltime.ru/watch/jean-marcel/JM-160.250.53/122019/
https://www.alltime.ru/watch/jean-marcel/JM-570.267.73/31129/
https://www.alltime.ru/watch/jean-marcel/JM-570.266.72/34128/
https://www.alltime.ru/watch/jean-marcel/JM-361.266.32/121989/
https://www.alltime.ru/watch/jean-marcel/JM-860.251.35/122060/
https://www.alltime.ru/watch/jean-marcel/JM-570.271.35/121895/
https://www.alltime.ru/watch/jean-marcel/JM-160.303.26/147229/
https://www.alltime.ru/watch/jean-marcel/JM-970.267.73/122013/
https://www.alltime.ru/watch/jean-marcel/JM-560.231.55/122048/
https://www.alltime.ru/watch/jean-marcel/JM-970.251.53/26072/
https://www.alltime.ru/watch/jean-marcel/JM-960.250.35/122032/
https://www.alltime.ru/watch/jean-marcel/JM-460.267.73/31110/
https://www.alltime.ru/watch/jean-marcel/JM-861.240.32/122064/
https://www.alltime.ru/watch/jean-marcel/JM-570.271.53/121894/
https://www.alltime.ru/watch/jean-marcel/JM-160.232.42/122014/
https://www.alltime.ru/watch/jean-marcel/JM-960.251.46/122069/
https://www.alltime.ru/watch/jean-marcel/JM-160.303.22/147228/
https://www.alltime.ru/watch/jean-marcel/JM-965.271.35/121889/
https://www.alltime.ru/watch/jean-marcel/JM-160.251.35/39482/
https://www.alltime.ru/watch/jean-marcel/JM-160.231.45/122035/
https://www.alltime.ru/watch/jean-marcel/JM-160.267.36/31087/
https://www.alltime.ru/watch/jean-marcel/JM-564.271.53/16320/
https://www.alltime.ru/watch/jean-marcel/JM-460.265.72/121976/
https://www.alltime.ru/watch/jean-marcel/JM-560.250.33/122026/
https://www.alltime.ru/watch/jean-marcel/JM-560.250.52/122051/
https://www.alltime.ru/watch/jean-marcel/JM-970.266.32/122011/
https://www.alltime.ru/watch/jean-marcel/JM-960.267.56/31139/
https://www.alltime.ru/watch/jean-marcel/JM-160.267.73/31091/
https://www.alltime.ru/watch/jean-marcel/JM-565.271.35/121896/
https://www.alltime.ru/watch/jean-marcel/JM-560.267.63/121903/
https://www.alltime.ru/watch/jean-marcel/JM-970.251.76/122010/
https://www.alltime.ru/watch/jean-marcel/JM-170.252.32/122047/
https://www.alltime.ru/watch/jean-marcel/JM-960.265.73/16316/
https://www.alltime.ru/watch/jean-marcel/JM-160.265.52/16332/
https://www.alltime.ru/watch/jean-marcel/JM-160.252.62/122043/
https://www.alltime.ru/watch/jean-marcel/JM-960.265.33/31132/
https://www.alltime.ru/watch/jean-marcel/JM-170.302.32/147236/
https://www.alltime.ru/watch/jean-marcel/JM-161.271.53/121900/
https://www.alltime.ru/watch/jean-marcel/JM-960.251.76/122070/
https://www.alltime.ru/watch/jean-marcel/JM-160.267.63/121983/
https://www.alltime.ru/watch/jean-marcel/JM-360.231.45/122025/
https://www.alltime.ru/watch/jean-marcel/JM-960.251.33/121998/
https://www.alltime.ru/watch/jean-marcel/JM-170.265.52/31098/
